{
  "tagfile": {
    "compound": [
      {
        "@kind": "file",
        "name": {
          "$": "klocalizedstring.h"
        },
        "path": {
          "$": "/home/user/workspace/Generate_API_Documentation/sources/ki18n/src/i18n/"
        },
        "filename": {
          "$": "klocalizedstring_8h.html"
        },
        "class": {
          "@kind": "class",
          "$": "KLocalizedString"
        },
        "member": [
          {
            "@kind": "define",
            "type": {
              "$": "#define"
            },
            "name": {
              "$": "I18N_NOOP"
            },
            "anchorfile": {
              "$": "klocalizedstring_8h.html"
            },
            "anchor": {
              "$": "acabc3278acc31ffe74c0ddcd3e745543"
            },
            "arglist": {
              "$": "(text)"
            }
          },
          {
            "@kind": "define",
            "type": {
              "$": "#define"
            },
            "name": {
              "$": "I18N_NOOP2"
            },
            "anchorfile": {
              "$": "klocalizedstring_8h.html"
            },
            "anchor": {
              "$": "a06a09e9ba4019d3d651c95a0ecc8ff72"
            },
            "arglist": {
              "$": "(context, text)"
            }
          },
          {
            "@kind": "define",
            "type": {
              "$": "#define"
            },
            "name": {
              "$": "I18N_NOOP2_NOSTRIP"
            },
            "anchorfile": {
              "$": "klocalizedstring_8h.html"
            },
            "anchor": {
              "$": "a2f15ca66237dcd911ea53f86bebfbed7"
            },
            "arglist": {
              "$": "(context, text)"
            }
          },
          {
            "@kind": "define",
            "type": {
              "$": "#define"
            },
            "name": {
              "$": "I18NC_NOOP"
            },
            "anchorfile": {
              "$": "klocalizedstring_8h.html"
            },
            "anchor": {
              "$": "ae741656a7a57488c3b3d373422f0b2b0"
            },
            "arglist": {
              "$": "(context, text)"
            }
          },
          {
            "@kind": "function",
            "type": {
              "$": "QString"
            },
            "name": {
              "$": "i18n"
            },
            "anchorfile": {
              "$": "klocalizedstring_8h.html"
            },
            "anchor": {
              "$": "ade82e1747da8e802b9273e6ae1f18ab2"
            },
            "arglist": {
              "$": "(const char *text, const TYPE &arg...)"
            }
          },
          {
            "@kind": "function",
            "type": {
              "$": "QString"
            },
            "name": {
              "$": "i18nc"
            },
            "anchorfile": {
              "$": "klocalizedstring_8h.html"
            },
            "anchor": {
              "$": "a64d8d58df9ba466ce2f96ffa8aa4b185"
            },
            "arglist": {
              "$": "(const char *context, const char *text, const TYPE &arg...)"
            }
          },
          {
            "@kind": "function",
            "type": {
              "$": "QString"
            },
            "name": {
              "$": "i18ncp"
            },
            "anchorfile": {
              "$": "klocalizedstring_8h.html"
            },
            "anchor": {
              "$": "aeeadaaca0c480bc90f6f17e73556d5f0"
            },
            "arglist": {
              "$": "(const char *context, const char *singular, const char *plural, const TYPE &arg...)"
            }
          },
          {
            "@kind": "function",
            "type": {
              "$": "QString"
            },
            "name": {
              "$": "i18nd"
            },
            "anchorfile": {
              "$": "klocalizedstring_8h.html"
            },
            "anchor": {
              "$": "ab556e016a9193611db97f0cfad1898a3"
            },
            "arglist": {
              "$": "(const char *domain, const char *text, const TYPE &arg...)"
            }
          },
          {
            "@kind": "function",
            "type": {
              "$": "QString"
            },
            "name": {
              "$": "i18ndc"
            },
            "anchorfile": {
              "$": "klocalizedstring_8h.html"
            },
            "anchor": {
              "$": "a3120480152c1957e72619905dbfbe96c"
            },
            "arglist": {
              "$": "(const char *domain, const char *context, const char *text, const TYPE &arg...)"
            }
          },
          {
            "@kind": "function",
            "type": {
              "$": "QString"
            },
            "name": {
              "$": "i18ndcp"
            },
            "anchorfile": {
              "$": "klocalizedstring_8h.html"
            },
            "anchor": {
              "$": "a0a049df3531ece30718baef323e584fa"
            },
            "arglist": {
              "$": "(const char *domain, const char *context, const char *singular, const char *plural, const TYPE &arg...)"
            }
          },
          {
            "@kind": "function",
            "type": {
              "$": "QString"
            },
            "name": {
              "$": "i18ndp"
            },
            "anchorfile": {
              "$": "klocalizedstring_8h.html"
            },
            "anchor": {
              "$": "ab23ace3ce39616dbfb0f1e1939be5379"
            },
            "arglist": {
              "$": "(const char *domain, const char *singular, const char *plural, const TYPE &arg...)"
            }
          },
          {
            "@kind": "function",
            "type": {
              "$": "QString"
            },
            "name": {
              "$": "i18np"
            },
            "anchorfile": {
              "$": "klocalizedstring_8h.html"
            },
            "anchor": {
              "$": "a2b724981a4455ca588954535d8b4154d"
            },
            "arglist": {
              "$": "(const char *singular, const char *plural, const TYPE &arg...)"
            }
          },
          {
            "@kind": "function",
            "type": {
              "$": "KLocalizedString KI18N_EXPORT"
            },
            "name": {
              "$": "ki18n"
            },
            "anchorfile": {
              "$": "klocalizedstring_8h.html"
            },
            "anchor": {
              "$": "a2436c0aaeb52c95fdd3da220ccd39854"
            },
            "arglist": {
              "$": "(const char *text)"
            }
          },
          {
            "@kind": "function",
            "type": {
              "$": "KLocalizedString KI18N_EXPORT"
            },
            "name": {
              "$": "ki18nc"
            },
            "anchorfile": {
              "$": "klocalizedstring_8h.html"
            },
            "anchor": {
              "$": "ab1bd4bdd21557ffb2df84df87f6e1986"
            },
            "arglist": {
              "$": "(const char *context, const char *text)"
            }
          },
          {
            "@kind": "function",
            "type": {
              "$": "KLocalizedString KI18N_EXPORT"
            },
            "name": {
              "$": "ki18ncp"
            },
            "anchorfile": {
              "$": "klocalizedstring_8h.html"
            },
            "anchor": {
              "$": "a73bc81062c8670e54a23d01b4a00f56e"
            },
            "arglist": {
              "$": "(const char *context, const char *singular, const char *plural)"
            }
          },
          {
            "@kind": "function",
            "type": {
              "$": "KLocalizedString KI18N_EXPORT"
            },
            "name": {
              "$": "ki18nd"
            },
            "anchorfile": {
              "$": "klocalizedstring_8h.html"
            },
            "anchor": {
              "$": "a17edd286c0b63f5e36417eba4a8e7ce9"
            },
            "arglist": {
              "$": "(const char *domain, const char *text)"
            }
          },
          {
            "@kind": "function",
            "type": {
              "$": "KLocalizedString KI18N_EXPORT"
            },
            "name": {
              "$": "ki18ndc"
            },
            "anchorfile": {
              "$": "klocalizedstring_8h.html"
            },
            "anchor": {
              "$": "a91635b1edb372370deb3703f4bb800d1"
            },
            "arglist": {
              "$": "(const char *domain, const char *context, const char *text)"
            }
          },
          {
            "@kind": "function",
            "type": {
              "$": "KLocalizedString KI18N_EXPORT"
            },
            "name": {
              "$": "ki18ndcp"
            },
            "anchorfile": {
              "$": "klocalizedstring_8h.html"
            },
            "anchor": {
              "$": "a98ac261ca74304b6ef5e20d63aade685"
            },
            "arglist": {
              "$": "(const char *domain, const char *context, const char *singular, const char *plural)"
            }
          },
          {
            "@kind": "function",
            "type": {
              "$": "KLocalizedString KI18N_EXPORT"
            },
            "name": {
              "$": "ki18ndp"
            },
            "anchorfile": {
              "$": "klocalizedstring_8h.html"
            },
            "anchor": {
              "$": "afb2ff7eb3c7499abc84854263825934a"
            },
            "arglist": {
              "$": "(const char *domain, const char *singular, const char *plural)"
            }
          },
          {
            "@kind": "function",
            "type": {
              "$": "KLocalizedString KI18N_EXPORT"
            },
            "name": {
              "$": "ki18np"
            },
            "anchorfile": {
              "$": "klocalizedstring_8h.html"
            },
            "anchor": {
              "$": "a081851d1d0bb4cb20393ae9bdb919df3"
            },
            "arglist": {
              "$": "(const char *singular, const char *plural)"
            }
          },
          {
            "@kind": "function",
            "type": {
              "$": "KLocalizedString KI18N_EXPORT"
            },
            "name": {
              "$": "kxi18n"
            },
            "anchorfile": {
              "$": "klocalizedstring_8h.html"
            },
            "anchor": {
              "$": "ab0476bb74730bc6b6d085d22b96eca98"
            },
            "arglist": {
              "$": "(const char *text)"
            }
          },
          {
            "@kind": "function",
            "type": {
              "$": "KLocalizedString KI18N_EXPORT"
            },
            "name": {
              "$": "kxi18nc"
            },
            "anchorfile": {
              "$": "klocalizedstring_8h.html"
            },
            "anchor": {
              "$": "af33ce42696f558d20a27f19949acc1cf"
            },
            "arglist": {
              "$": "(const char *context, const char *text)"
            }
          },
          {
            "@kind": "function",
            "type": {
              "$": "KLocalizedString KI18N_EXPORT"
            },
            "name": {
              "$": "kxi18ncp"
            },
            "anchorfile": {
              "$": "klocalizedstring_8h.html"
            },
            "anchor": {
              "$": "a479fc87f3703d2e470543e7c73956623"
            },
            "arglist": {
              "$": "(const char *context, const char *singular, const char *plural)"
            }
          },
          {
            "@kind": "function",
            "type": {
              "$": "KLocalizedString KI18N_EXPORT"
            },
            "name": {
              "$": "kxi18nd"
            },
            "anchorfile": {
              "$": "klocalizedstring_8h.html"
            },
            "anchor": {
              "$": "a427f572ed2044dec2dce2498fa7fd0e0"
            },
            "arglist": {
              "$": "(const char *domain, const char *text)"
            }
          },
          {
            "@kind": "function",
            "type": {
              "$": "KLocalizedString KI18N_EXPORT"
            },
            "name": {
              "$": "kxi18ndc"
            },
            "anchorfile": {
              "$": "klocalizedstring_8h.html"
            },
            "anchor": {
              "$": "aca3b09fb5651e7853650a9e888d2e15c"
            },
            "arglist": {
              "$": "(const char *domain, const char *context, const char *text)"
            }
          },
          {
            "@kind": "function",
            "type": {
              "$": "KLocalizedString KI18N_EXPORT"
            },
            "name": {
              "$": "kxi18ndcp"
            },
            "anchorfile": {
              "$": "klocalizedstring_8h.html"
            },
            "anchor": {
              "$": "a4aa40f5d1a3f7cb5ebf3ce445c78d079"
            },
            "arglist": {
              "$": "(const char *domain, const char *context, const char *singular, const char *plural)"
            }
          },
          {
            "@kind": "function",
            "type": {
              "$": "KLocalizedString KI18N_EXPORT"
            },
            "name": {
              "$": "kxi18ndp"
            },
            "anchorfile": {
              "$": "klocalizedstring_8h.html"
            },
            "anchor": {
              "$": "ad03f80c103e996d89f3a1ac1bc363f86"
            },
            "arglist": {
              "$": "(const char *domain, const char *singular, const char *plural)"
            }
          },
          {
            "@kind": "function",
            "type": {
              "$": "KLocalizedString KI18N_EXPORT"
            },
            "name": {
              "$": "kxi18np"
            },
            "anchorfile": {
              "$": "klocalizedstring_8h.html"
            },
            "anchor": {
              "$": "a15206c846fe091b9317be3f4df3c3ba8"
            },
            "arglist": {
              "$": "(const char *singular, const char *plural)"
            }
          },
          {
            "@kind": "function",
            "type": {
              "$": "QString"
            },
            "name": {
              "$": "tr2i18n"
            },
            "anchorfile": {
              "$": "klocalizedstring_8h.html"
            },
            "anchor": {
              "$": "abfd9c17d766f4ca06e54580fc002efa2"
            },
            "arglist": {
              "$": "(const char *text, const char *comment=nullptr)"
            }
          },
          {
            "@kind": "function",
            "type": {
              "$": "QString"
            },
            "name": {
              "$": "tr2i18nd"
            },
            "anchorfile": {
              "$": "klocalizedstring_8h.html"
            },
            "anchor": {
              "$": "a227cbe03ba696f9a21af1993aedf2f91"
            },
            "arglist": {
              "$": "(const char *domain, const char *text, const char *comment=nullptr)"
            }
          },
          {
            "@kind": "function",
            "type": {
              "$": "QString"
            },
            "name": {
              "$": "tr2xi18n"
            },
            "anchorfile": {
              "$": "klocalizedstring_8h.html"
            },
            "anchor": {
              "$": "a4e73708518710628ec4ffa8a4b4d7e10"
            },
            "arglist": {
              "$": "(const char *text, const char *comment=nullptr)"
            }
          },
          {
            "@kind": "function",
            "type": {
              "$": "QString"
            },
            "name": {
              "$": "tr2xi18nd"
            },
            "anchorfile": {
              "$": "klocalizedstring_8h.html"
            },
            "anchor": {
              "$": "a5b56493e4c50396e0b7537588500ff12"
            },
            "arglist": {
              "$": "(const char *domain, const char *text, const char *comment=nullptr)"
            }
          },
          {
            "@kind": "function",
            "type": {
              "$": "QString"
            },
            "name": {
              "$": "xi18n"
            },
            "anchorfile": {
              "$": "klocalizedstring_8h.html"
            },
            "anchor": {
              "$": "aa82577aa270433b3cffd05cf887a03c9"
            },
            "arglist": {
              "$": "(const char *text, const TYPE &arg...)"
            }
          },
          {
            "@kind": "function",
            "type": {
              "$": "QString"
            },
            "name": {
              "$": "xi18nc"
            },
            "anchorfile": {
              "$": "klocalizedstring_8h.html"
            },
            "anchor": {
              "$": "a5104301ec9fa5d7ed7992bb31467b88d"
            },
            "arglist": {
              "$": "(const char *context, const char *text, const TYPE &arg...)"
            }
          },
          {
            "@kind": "function",
            "type": {
              "$": "QString"
            },
            "name": {
              "$": "xi18ncp"
            },
            "anchorfile": {
              "$": "klocalizedstring_8h.html"
            },
            "anchor": {
              "$": "a3dbc02d9a5392865e275d1e9056f2352"
            },
            "arglist": {
              "$": "(const char *context, const char *singular, const char *plural, const TYPE &arg...)"
            }
          },
          {
            "@kind": "function",
            "type": {
              "$": "QString"
            },
            "name": {
              "$": "xi18nd"
            },
            "anchorfile": {
              "$": "klocalizedstring_8h.html"
            },
            "anchor": {
              "$": "a9c390b95d56d515a1b6f81f4dad9885f"
            },
            "arglist": {
              "$": "(const char *domain, const char *text, const TYPE &arg...)"
            }
          },
          {
            "@kind": "function",
            "type": {
              "$": "QString"
            },
            "name": {
              "$": "xi18ndc"
            },
            "anchorfile": {
              "$": "klocalizedstring_8h.html"
            },
            "anchor": {
              "$": "ab939711b303299c1c89e0275effd35d0"
            },
            "arglist": {
              "$": "(const char *domain, const char *context, const char *text, const TYPE &arg...)"
            }
          },
          {
            "@kind": "function",
            "type": {
              "$": "QString"
            },
            "name": {
              "$": "xi18ndcp"
            },
            "anchorfile": {
              "$": "klocalizedstring_8h.html"
            },
            "anchor": {
              "$": "a94d00c587ed2c41e3b8bd8bb84c2e4f5"
            },
            "arglist": {
              "$": "(const char *domain, const char *context, const char *singular, const char *plural, const TYPE &arg...)"
            }
          },
          {
            "@kind": "function",
            "type": {
              "$": "QString"
            },
            "name": {
              "$": "xi18ndp"
            },
            "anchorfile": {
              "$": "klocalizedstring_8h.html"
            },
            "anchor": {
              "$": "a93a625cb5e56eec393ebeb938b309ec0"
            },
            "arglist": {
              "$": "(const char *domain, const char *singular, const char *plural, const TYPE &arg...)"
            }
          },
          {
            "@kind": "function",
            "type": {
              "$": "QString"
            },
            "name": {
              "$": "xi18np"
            },
            "anchorfile": {
              "$": "klocalizedstring_8h.html"
            },
            "anchor": {
              "$": "a25f71be3a26940e5656c989cb249ce2c"
            },
            "arglist": {
              "$": "(const char *singular, const char *plural, const TYPE &arg...)"
            }
          }
        ]
      },
      {
        "@kind": "class",
        "name": {
          "$": "KCountry"
        },
        "filename": {
          "$": "classKCountry.html"
        },
        "member": [
          {
            "@kind": "function",
            "type": {},
            "name": {
              "$": "KCountry"
            },
            "anchorfile": {
              "$": "classKCountry.html"
            },
            "anchor": {
              "$": "a20df2692ed171135e3d4398098484480"
            },
            "arglist": {
              "$": "()"
            }
          },
          {
            "@kind": "function",
            "type": {
              "$": "QString"
            },
            "name": {
              "$": "alpha2"
            },
            "anchorfile": {
              "$": "classKCountry.html"
            },
            "anchor": {
              "$": "ae012a23344cd56b69e9f0e4a09aef85f"
            },
            "arglist": {
              "$": "() const"
            }
          },
          {
            "@kind": "function",
            "type": {
              "$": "QString"
            },
            "name": {
              "$": "alpha3"
            },
            "anchorfile": {
              "$": "classKCountry.html"
            },
            "anchor": {
              "$": "a70a6369c4775e288891b21734733ae6e"
            },
            "arglist": {
              "$": "() const"
            }
          },
          {
            "@kind": "function",
            "type": {
              "$": "QLocale::Country"
            },
            "name": {
              "$": "country"
            },
            "anchorfile": {
              "$": "classKCountry.html"
            },
            "anchor": {
              "$": "a830b89f52eb8f752929cf800a6ebfc81"
            },
            "arglist": {
              "$": "() const"
            }
          },
          {
            "@kind": "function",
            "type": {
              "$": "QString"
            },
            "name": {
              "$": "currencyCode"
            },
            "anchorfile": {
              "$": "classKCountry.html"
            },
            "anchor": {
              "$": "ad6402b57bee6d8ca5616c399ff14b2e7"
            },
            "arglist": {
              "$": "() const"
            }
          },
          {
            "@kind": "function",
            "type": {
              "$": "QString"
            },
            "name": {
              "$": "emojiFlag"
            },
            "anchorfile": {
              "$": "classKCountry.html"
            },
            "anchor": {
              "$": "a31d2836d4f6c2268bad43c7b077f1e60"
            },
            "arglist": {
              "$": "() const"
            }
          },
          {
            "@kind": "function",
            "type": {
              "$": "bool"
            },
            "name": {
              "$": "isValid"
            },
            "anchorfile": {
              "$": "classKCountry.html"
            },
            "anchor": {
              "$": "a32ab92b61c759e1a914f725a86ebcfe5"
            },
            "arglist": {
              "$": "() const"
            }
          },
          {
            "@kind": "function",
            "type": {
              "$": "QString"
            },
            "name": {
              "$": "name"
            },
            "anchorfile": {
              "$": "classKCountry.html"
            },
            "anchor": {
              "$": "a57f79934b8bb114d0513567ae7e1835a"
            },
            "arglist": {
              "$": "() const"
            }
          },
          {
            "@kind": "function",
            "type": {
              "$": "QList< KCountrySubdivision >"
            },
            "name": {
              "$": "subdivisions"
            },
            "anchorfile": {
              "$": "classKCountry.html"
            },
            "anchor": {
              "$": "ac17123c62fd21f6640ca9168e83995d2"
            },
            "arglist": {
              "$": "() const"
            }
          },
          {
            "@kind": "function",
            "type": {
              "$": "QList< const char * >"
            },
            "name": {
              "$": "timeZoneIds"
            },
            "anchorfile": {
              "$": "classKCountry.html"
            },
            "anchor": {
              "$": "a5ee742b71e52251acf7165fa45095ee5"
            },
            "arglist": {
              "$": "() const"
            }
          },
          {
            "@kind": "function",
            "@static": "yes",
            "type": {
              "$": "static QList< KCountry >"
            },
            "name": {
              "$": "allCountries"
            },
            "anchorfile": {
              "$": "classKCountry.html"
            },
            "anchor": {
              "$": "a2de2cadaec8671340857a4cdde3a168f"
            },
            "arglist": {
              "$": "()"
            }
          },
          {
            "@kind": "function",
            "@static": "yes",
            "type": {
              "$": "static KCountry"
            },
            "name": {
              "$": "fromAlpha2"
            },
            "anchorfile": {
              "$": "classKCountry.html"
            },
            "anchor": {
              "$": "a3e5a0856c0899537666b928a70b6a84e"
            },
            "arglist": {
              "$": "(const char *alpha2Code)"
            }
          },
          {
            "@kind": "function",
            "@static": "yes",
            "type": {
              "$": "static KCountry"
            },
            "name": {
              "$": "fromAlpha2"
            },
            "anchorfile": {
              "$": "classKCountry.html"
            },
            "anchor": {
              "$": "aaf19c9f887182094006bb6c644999264"
            },
            "arglist": {
              "$": "(QStringView alpha2Code)"
            }
          },
          {
            "@kind": "function",
            "@static": "yes",
            "type": {
              "$": "static KCountry"
            },
            "name": {
              "$": "fromAlpha3"
            },
            "anchorfile": {
              "$": "classKCountry.html"
            },
            "anchor": {
              "$": "afab49ef6383eabd1ba12d285f7711fdf"
            },
            "arglist": {
              "$": "(const char *alpha3Code)"
            }
          },
          {
            "@kind": "function",
            "@static": "yes",
            "type": {
              "$": "static KCountry"
            },
            "name": {
              "$": "fromAlpha3"
            },
            "anchorfile": {
              "$": "classKCountry.html"
            },
            "anchor": {
              "$": "ad890d364d6612979b4a1a6eb28fb26b0"
            },
            "arglist": {
              "$": "(QStringView alpha3Code)"
            }
          },
          {
            "@kind": "function",
            "@static": "yes",
            "type": {
              "$": "static KCountry"
            },
            "name": {
              "$": "fromLocation"
            },
            "anchorfile": {
              "$": "classKCountry.html"
            },
            "anchor": {
              "$": "a15ed1efe284d9d06d5dee04648549f43"
            },
            "arglist": {
              "$": "(float latitude, float longitude)"
            }
          },
          {
            "@kind": "function",
            "@static": "yes",
            "type": {
              "$": "static KCountry"
            },
            "name": {
              "$": "fromName"
            },
            "anchorfile": {
              "$": "classKCountry.html"
            },
            "anchor": {
              "$": "a5005f7f6cc61fd6d9bde07a56df90a78"
            },
            "arglist": {
              "$": "(QStringView name)"
            }
          },
          {
            "@kind": "function",
            "@static": "yes",
            "type": {
              "$": "static KCountry"
            },
            "name": {
              "$": "fromQLocale"
            },
            "anchorfile": {
              "$": "classKCountry.html"
            },
            "anchor": {
              "$": "a647ebd8aa6b45417fd0a4c09cbcf2660"
            },
            "arglist": {
              "$": "(QLocale::Country country)"
            }
          }
        ]
      },
      {
        "@kind": "class",
        "name": {
          "$": "KCountrySubdivision"
        },
        "filename": {
          "$": "classKCountrySubdivision.html"
        },
        "member": [
          {
            "@kind": "function",
            "type": {},
            "name": {
              "$": "KCountrySubdivision"
            },
            "anchorfile": {
              "$": "classKCountrySubdivision.html"
            },
            "anchor": {
              "$": "a5adc14faad7ce11aeccbdd55dbffef31"
            },
            "arglist": {
              "$": "()"
            }
          },
          {
            "@kind": "function",
            "type": {
              "$": "QString"
            },
            "name": {
              "$": "code"
            },
            "anchorfile": {
              "$": "classKCountrySubdivision.html"
            },
            "anchor": {
              "$": "a1627bc82eca81f43ebce55d9a9db6ad0"
            },
            "arglist": {
              "$": "() const"
            }
          },
          {
            "@kind": "function",
            "type": {
              "$": "KCountry"
            },
            "name": {
              "$": "country"
            },
            "anchorfile": {
              "$": "classKCountrySubdivision.html"
            },
            "anchor": {
              "$": "a528546ab4a9568e56e763dc7620a49ec"
            },
            "arglist": {
              "$": "() const"
            }
          },
          {
            "@kind": "function",
            "type": {
              "$": "bool"
            },
            "name": {
              "$": "isValid"
            },
            "anchorfile": {
              "$": "classKCountrySubdivision.html"
            },
            "anchor": {
              "$": "a5cf4e026a48a16aa786404ff1b000eef"
            },
            "arglist": {
              "$": "() const"
            }
          },
          {
            "@kind": "function",
            "type": {
              "$": "QString"
            },
            "name": {
              "$": "name"
            },
            "anchorfile": {
              "$": "classKCountrySubdivision.html"
            },
            "anchor": {
              "$": "a2cdab1f71c0a22d7e7c75e7452fabff3"
            },
            "arglist": {
              "$": "() const"
            }
          },
          {
            "@kind": "function",
            "type": {
              "$": "KCountrySubdivision"
            },
            "name": {
              "$": "parent"
            },
            "anchorfile": {
              "$": "classKCountrySubdivision.html"
            },
            "anchor": {
              "$": "a2b7e3e7a12afd2378ac2b820bf6ab3c9"
            },
            "arglist": {
              "$": "() const"
            }
          },
          {
            "@kind": "function",
            "type": {
              "$": "QList< KCountrySubdivision >"
            },
            "name": {
              "$": "subdivisions"
            },
            "anchorfile": {
              "$": "classKCountrySubdivision.html"
            },
            "anchor": {
              "$": "ae5b668699480f986dc854c49d8da6277"
            },
            "arglist": {
              "$": "() const"
            }
          },
          {
            "@kind": "function",
            "type": {
              "$": "QList< const char * >"
            },
            "name": {
              "$": "timeZoneIds"
            },
            "anchorfile": {
              "$": "classKCountrySubdivision.html"
            },
            "anchor": {
              "$": "a0d496ad2fac88100e41c73aecd225836"
            },
            "arglist": {
              "$": "() const"
            }
          },
          {
            "@kind": "function",
            "@static": "yes",
            "type": {
              "$": "static KCountrySubdivision"
            },
            "name": {
              "$": "fromCode"
            },
            "anchorfile": {
              "$": "classKCountrySubdivision.html"
            },
            "anchor": {
              "$": "a5b28358ebaef694db32f5f49a4e44739"
            },
            "arglist": {
              "$": "(const char *code)"
            }
          },
          {
            "@kind": "function",
            "@static": "yes",
            "type": {
              "$": "static KCountrySubdivision"
            },
            "name": {
              "$": "fromCode"
            },
            "anchorfile": {
              "$": "classKCountrySubdivision.html"
            },
            "anchor": {
              "$": "a200e64c6c3374534cec33e214a831ef7"
            },
            "arglist": {
              "$": "(QStringView code)"
            }
          },
          {
            "@kind": "function",
            "@static": "yes",
            "type": {
              "$": "static KCountrySubdivision"
            },
            "name": {
              "$": "fromLocation"
            },
            "anchorfile": {
              "$": "classKCountrySubdivision.html"
            },
            "anchor": {
              "$": "af477c1ac0fddbc58622c55864a4887a4"
            },
            "arglist": {
              "$": "(float latitude, float longitude)"
            }
          }
        ]
      },
      {
        "@kind": "class",
        "name": {
          "$": "KLazyLocalizedString"
        },
        "filename": {
          "$": "classKLazyLocalizedString.html"
        },
        "member": [
          {
            "@kind": "function",
            "type": {
              "$": "constexpr"
            },
            "name": {
              "$": "KLazyLocalizedString"
            },
            "anchorfile": {
              "$": "classKLazyLocalizedString.html"
            },
            "anchor": {
              "$": "a31dcf4517b69c7e09e371800a7f67337"
            },
            "arglist": {
              "$": "()=default"
            }
          },
          {
            "@kind": "function",
            "type": {
              "$": "KLocalizedString"
            },
            "name": {
              "$": "ignoreMarkup"
            },
            "anchorfile": {
              "$": "classKLazyLocalizedString.html"
            },
            "anchor": {
              "$": "ade80df65b073a7b89aa91b131d545d89"
            },
            "arglist": {
              "$": "() const"
            }
          },
          {
            "@kind": "function",
            "type": {
              "$": "KLocalizedString"
            },
            "name": {
              "$": "inContext"
            },
            "anchorfile": {
              "$": "classKLazyLocalizedString.html"
            },
            "anchor": {
              "$": "abeafe46df7398107bdc86173969f76a4"
            },
            "arglist": {
              "$": "(const QString &key, const QString &value) const"
            }
          },
          {
            "@kind": "function",
            "type": {
              "$": "constexpr bool"
            },
            "name": {
              "$": "isEmpty"
            },
            "anchorfile": {
              "$": "classKLazyLocalizedString.html"
            },
            "anchor": {
              "$": "aaf64aa06cf0ace783c0c2d146e3f6f13"
            },
            "arglist": {
              "$": "() const"
            }
          },
          {
            "@kind": "function",
            "type": {},
            "name": {
              "$": "operator KLocalizedString"
            },
            "anchorfile": {
              "$": "classKLazyLocalizedString.html"
            },
            "anchor": {
              "$": "a747bdcbd51ad8ba414a794df4c823973"
            },
            "arglist": {
              "$": "() const"
            }
          },
          {
            "@kind": "function",
            "type": {
              "$": "KLocalizedString"
            },
            "name": {
              "$": "relaxSubs"
            },
            "anchorfile": {
              "$": "classKLazyLocalizedString.html"
            },
            "anchor": {
              "$": "ad02f9d320a990b21e463374f863b0aaa"
            },
            "arglist": {
              "$": "() const"
            }
          },
          {
            "@kind": "function",
            "type": {
              "$": "KLocalizedString"
            },
            "name": {
              "$": "subs"
            },
            "anchorfile": {
              "$": "classKLazyLocalizedString.html"
            },
            "anchor": {
              "$": "a6be96ae28019a2d31a638ec151932d2f"
            },
            "arglist": {
              "$": "(const KLocalizedString &a, int fieldWidth=0, QChar fillChar=QLatin1Char(' ')) const"
            }
          },
          {
            "@kind": "function",
            "type": {
              "$": "KLocalizedString"
            },
            "name": {
              "$": "subs"
            },
            "anchorfile": {
              "$": "classKLazyLocalizedString.html"
            },
            "anchor": {
              "$": "a75853ac34d667b898b3a0226190f7122"
            },
            "arglist": {
              "$": "(const QString &a, int fieldWidth=0, QChar fillChar=QLatin1Char(' ')) const"
            }
          },
          {
            "@kind": "function",
            "type": {
              "$": "KLocalizedString"
            },
            "name": {
              "$": "subs"
            },
            "anchorfile": {
              "$": "classKLazyLocalizedString.html"
            },
            "anchor": {
              "$": "a969603a64efaf093400acc8d42a8841c"
            },
            "arglist": {
              "$": "(double a, int fieldWidth=0, char format='g', int precision=-1, QChar fillChar=QLatin1Char(' ')) const"
            }
          },
          {
            "@kind": "function",
            "type": {
              "$": "KLocalizedString"
            },
            "name": {
              "$": "subs"
            },
            "anchorfile": {
              "$": "classKLazyLocalizedString.html"
            },
            "anchor": {
              "$": "a5c75a59ff08748969d71cd1790a323fe"
            },
            "arglist": {
              "$": "(int a, int fieldWidth=0, int base=10, QChar fillChar=QLatin1Char(' ')) const"
            }
          },
          {
            "@kind": "function",
            "type": {
              "$": "KLocalizedString"
            },
            "name": {
              "$": "subs"
            },
            "anchorfile": {
              "$": "classKLazyLocalizedString.html"
            },
            "anchor": {
              "$": "a7ccd59971450e18fdfc1833baaec4752"
            },
            "arglist": {
              "$": "(long a, int fieldWidth=0, int base=10, QChar fillChar=QLatin1Char(' ')) const"
            }
          },
          {
            "@kind": "function",
            "type": {
              "$": "KLocalizedString"
            },
            "name": {
              "$": "subs"
            },
            "anchorfile": {
              "$": "classKLazyLocalizedString.html"
            },
            "anchor": {
              "$": "aeba8c6ad8105bb96cbead4e439b4b2de"
            },
            "arglist": {
              "$": "(QChar a, int fieldWidth=0, QChar fillChar=QLatin1Char(' ')) const"
            }
          },
          {
            "@kind": "function",
            "type": {
              "$": "KLocalizedString"
            },
            "name": {
              "$": "subs"
            },
            "anchorfile": {
              "$": "classKLazyLocalizedString.html"
            },
            "anchor": {
              "$": "a5ed68a375a3be47141e6e1870075f8bd"
            },
            "arglist": {
              "$": "(qlonglong a, int fieldWidth=0, int base=10, QChar fillChar=QLatin1Char(' ')) const"
            }
          },
          {
            "@kind": "function",
            "type": {
              "$": "KLocalizedString"
            },
            "name": {
              "$": "subs"
            },
            "anchorfile": {
              "$": "classKLazyLocalizedString.html"
            },
            "anchor": {
              "$": "a2be88f5017402d0d9721cf525082007a"
            },
            "arglist": {
              "$": "(qulonglong a, int fieldWidth=0, int base=10, QChar fillChar=QLatin1Char(' ')) const"
            }
          },
          {
            "@kind": "function",
            "type": {
              "$": "KLocalizedString"
            },
            "name": {
              "$": "subs"
            },
            "anchorfile": {
              "$": "classKLazyLocalizedString.html"
            },
            "anchor": {
              "$": "a81b72be2393f8a2875228be2195ee6b2"
            },
            "arglist": {
              "$": "(uint a, int fieldWidth=0, int base=10, QChar fillChar=QLatin1Char(' ')) const"
            }
          },
          {
            "@kind": "function",
            "type": {
              "$": "KLocalizedString"
            },
            "name": {
              "$": "subs"
            },
            "anchorfile": {
              "$": "classKLazyLocalizedString.html"
            },
            "anchor": {
              "$": "aa9557571203e71b57106e4f3e50b8a8d"
            },
            "arglist": {
              "$": "(ulong a, int fieldWidth=0, int base=10, QChar fillChar=QLatin1Char(' ')) const"
            }
          },
          {
            "@kind": "function",
            "type": {
              "$": "QString"
            },
            "name": {
              "$": "toString"
            },
            "anchorfile": {
              "$": "classKLazyLocalizedString.html"
            },
            "anchor": {
              "$": "a41c2f00c8f339ba39d90a638181797ab"
            },
            "arglist": {
              "$": "() const"
            }
          },
          {
            "@kind": "function",
            "type": {
              "$": "QString"
            },
            "name": {
              "$": "toString"
            },
            "anchorfile": {
              "$": "classKLazyLocalizedString.html"
            },
            "anchor": {
              "$": "a94ca9fd55cb61356db52a70395bb668c"
            },
            "arglist": {
              "$": "(const char *domain) const"
            }
          },
          {
            "@kind": "function",
            "type": {
              "$": "QString"
            },
            "name": {
              "$": "toString"
            },
            "anchorfile": {
              "$": "classKLazyLocalizedString.html"
            },
            "anchor": {
              "$": "a9606159f086256dfbb9e3945f1dc231f"
            },
            "arglist": {
              "$": "(const QStringList &languages) const"
            }
          },
          {
            "@kind": "function",
            "type": {
              "$": "QString"
            },
            "name": {
              "$": "toString"
            },
            "anchorfile": {
              "$": "classKLazyLocalizedString.html"
            },
            "anchor": {
              "$": "adfc62d008f69ab33de2ca276a0b90d14"
            },
            "arglist": {
              "$": "(Kuit::VisualFormat format) const"
            }
          },
          {
            "@kind": "function",
            "type": {
              "$": "constexpr const char *"
            },
            "name": {
              "$": "untranslatedText"
            },
            "anchorfile": {
              "$": "classKLazyLocalizedString.html"
            },
            "anchor": {
              "$": "a5bc601c47d7f96d3605e733b4a567d8e"
            },
            "arglist": {
              "$": "() const"
            }
          },
          {
            "@kind": "function",
            "type": {
              "$": "KLocalizedString"
            },
            "name": {
              "$": "withDomain"
            },
            "anchorfile": {
              "$": "classKLazyLocalizedString.html"
            },
            "anchor": {
              "$": "aee03de8a34070deb2e8ab1c189f82257"
            },
            "arglist": {
              "$": "(const char *domain) const"
            }
          },
          {
            "@kind": "function",
            "type": {
              "$": "KLocalizedString"
            },
            "name": {
              "$": "withFormat"
            },
            "anchorfile": {
              "$": "classKLazyLocalizedString.html"
            },
            "anchor": {
              "$": "a755a661b0faad2cf1faa91e03d8e605e"
            },
            "arglist": {
              "$": "(Kuit::VisualFormat format) const"
            }
          },
          {
            "@kind": "function",
            "type": {
              "$": "KLocalizedString"
            },
            "name": {
              "$": "withLanguages"
            },
            "anchorfile": {
              "$": "classKLazyLocalizedString.html"
            },
            "anchor": {
              "$": "a049945af9f466d7a3fa2e37454354c3e"
            },
            "arglist": {
              "$": "(const QStringList &languages) const"
            }
          },
          {
            "@kind": "friend",
            "@protection": "private",
            "type": {
              "$": "constexpr friend KLazyLocalizedString"
            },
            "name": {
              "$": "kli18n"
            },
            "anchorfile": {
              "$": "classKLazyLocalizedString.html"
            },
            "anchor": {
              "$": "a96fefce1a52f2b807590065da37ee72f"
            },
            "arglist": {
              "$": "(const char(&text)[TextSize])"
            }
          },
          {
            "@kind": "friend",
            "@protection": "private",
            "type": {
              "$": "constexpr friend KLazyLocalizedString"
            },
            "name": {
              "$": "kli18nc"
            },
            "anchorfile": {
              "$": "classKLazyLocalizedString.html"
            },
            "anchor": {
              "$": "abc9ca7acbc4848c252b7f8635e86ebbf"
            },
            "arglist": {
              "$": "(const char(&context)[ContextSize], const char(&text)[TextSize])"
            }
          },
          {
            "@kind": "friend",
            "@protection": "private",
            "type": {
              "$": "constexpr friend KLazyLocalizedString"
            },
            "name": {
              "$": "kli18ncp"
            },
            "anchorfile": {
              "$": "classKLazyLocalizedString.html"
            },
            "anchor": {
              "$": "a4301d161d54fa124b7ce8f48e8bdc5a8"
            },
            "arglist": {
              "$": "(const char(&context)[ContextSize], const char(&singular)[SingularSize], const char(&plural)[PluralSize])"
            }
          },
          {
            "@kind": "friend",
            "@protection": "private",
            "type": {
              "$": "constexpr friend KLazyLocalizedString"
            },
            "name": {
              "$": "kli18np"
            },
            "anchorfile": {
              "$": "classKLazyLocalizedString.html"
            },
            "anchor": {
              "$": "a09da625cddc3cb71f353e39ce9abeae7"
            },
            "arglist": {
              "$": "(const char(&singular)[SingularSize], const char(&plural)[PluralSize])"
            }
          },
          {
            "@kind": "friend",
            "@protection": "private",
            "type": {
              "$": "constexpr friend KLazyLocalizedString"
            },
            "name": {
              "$": "klxi18n"
            },
            "anchorfile": {
              "$": "classKLazyLocalizedString.html"
            },
            "anchor": {
              "$": "ae89bc24fd9e6f029589b597c261ecadf"
            },
            "arglist": {
              "$": "(const char(&text)[TextSize])"
            }
          },
          {
            "@kind": "friend",
            "@protection": "private",
            "type": {
              "$": "constexpr friend KLazyLocalizedString"
            },
            "name": {
              "$": "klxi18nc"
            },
            "anchorfile": {
              "$": "classKLazyLocalizedString.html"
            },
            "anchor": {
              "$": "a13a033550718bdc134b61653336a0f81"
            },
            "arglist": {
              "$": "(const char(&context)[ContextSize], const char(&text)[TextSize])"
            }
          },
          {
            "@kind": "friend",
            "@protection": "private",
            "type": {
              "$": "constexpr friend KLazyLocalizedString"
            },
            "name": {
              "$": "klxi18ncp"
            },
            "anchorfile": {
              "$": "classKLazyLocalizedString.html"
            },
            "anchor": {
              "$": "a199faeb46f6d7d226bcac1f9bf5bb124"
            },
            "arglist": {
              "$": "(const char(&context)[ContextSize], const char(&singular)[SingularSize], const char(&plural)[PluralSize])"
            }
          },
          {
            "@kind": "friend",
            "@protection": "private",
            "type": {
              "$": "constexpr friend KLazyLocalizedString"
            },
            "name": {
              "$": "klxi18np"
            },
            "anchorfile": {
              "$": "classKLazyLocalizedString.html"
            },
            "anchor": {
              "$": "a8cd43b4150c49602e165970736ee9b69"
            },
            "arglist": {
              "$": "(const char(&singular)[SingularSize], const char(&plural)[PluralSize])"
            }
          }
        ]
      },
      {
        "@kind": "class",
        "name": {
          "$": "KLocalizedContext"
        },
        "filename": {
          "$": "classKLocalizedContext.html"
        },
        "base": {
          "$": "QObject"
        },
        "member": {
          "@kind": "property",
          "type": {
            "$": "QString"
          },
          "name": {
            "$": "translationDomain"
          },
          "anchorfile": {
            "$": "classKLocalizedContext.html"
          },
          "anchor": {
            "$": "aed9b155fd7d09d98f173f4d2bf30a2e4"
          },
          "arglist": {}
        }
      },
      {
        "@kind": "class",
        "name": {
          "$": "KLocalizedString"
        },
        "filename": {
          "$": "classKLocalizedString.html"
        },
        "member": [
          {
            "@kind": "function",
            "type": {},
            "name": {
              "$": "KLocalizedString"
            },
            "anchorfile": {
              "$": "classKLocalizedString.html"
            },
            "anchor": {
              "$": "a11d6f2e2b731f48f878481bf912e5198"
            },
            "arglist": {
              "$": "()"
            }
          },
          {
            "@kind": "function",
            "type": {},
            "name": {
              "$": "KLocalizedString"
            },
            "anchorfile": {
              "$": "classKLocalizedString.html"
            },
            "anchor": {
              "$": "a38dc318ba1f49733cf78c8761b4dbf7d"
            },
            "arglist": {
              "$": "(const KLocalizedString &rhs)"
            }
          },
          {
            "@kind": "function",
            "type": {},
            "name": {
              "$": "~KLocalizedString"
            },
            "anchorfile": {
              "$": "classKLocalizedString.html"
            },
            "anchor": {
              "$": "a2890336f66a5edd1ad80a04bec855fbf"
            },
            "arglist": {
              "$": "()"
            }
          },
          {
            "@kind": "function",
            "type": {
              "$": "KLocalizedString"
            },
            "name": {
              "$": "ignoreMarkup"
            },
            "anchorfile": {
              "$": "classKLocalizedString.html"
            },
            "anchor": {
              "$": "a8018712932b62271e0bdd6b29632d311"
            },
            "arglist": {
              "$": "() const"
            }
          },
          {
            "@kind": "function",
            "type": {
              "$": "KLocalizedString"
            },
            "name": {
              "$": "inContext"
            },
            "anchorfile": {
              "$": "classKLocalizedString.html"
            },
            "anchor": {
              "$": "a151066e1e9ffe55bb3c58fcd4f970900"
            },
            "arglist": {
              "$": "(const QString &key, const QString &value) const"
            }
          },
          {
            "@kind": "function",
            "type": {
              "$": "bool"
            },
            "name": {
              "$": "isEmpty"
            },
            "anchorfile": {
              "$": "classKLocalizedString.html"
            },
            "anchor": {
              "$": "ac6c4e3ab9e14c5cc28baf2214f0301ae"
            },
            "arglist": {
              "$": "() const"
            }
          },
          {
            "@kind": "function",
            "type": {
              "$": "KLocalizedString &"
            },
            "name": {
              "$": "operator="
            },
            "anchorfile": {
              "$": "classKLocalizedString.html"
            },
            "anchor": {
              "$": "a9471d953a9bab7074dc142bb1f33896b"
            },
            "arglist": {
              "$": "(const KLocalizedString &rhs)"
            }
          },
          {
            "@kind": "function",
            "type": {
              "$": "KLocalizedString"
            },
            "name": {
              "$": "relaxSubs"
            },
            "anchorfile": {
              "$": "classKLocalizedString.html"
            },
            "anchor": {
              "$": "adce490e267cbe76cdea52b8d1c4177cf"
            },
            "arglist": {
              "$": "() const"
            }
          },
          {
            "@kind": "function",
            "type": {
              "$": "KLocalizedString"
            },
            "name": {
              "$": "subs"
            },
            "anchorfile": {
              "$": "classKLocalizedString.html"
            },
            "anchor": {
              "$": "ad781f2f9664e7f9fa7fa9663cff57417"
            },
            "arglist": {
              "$": "(const KLocalizedString &a, int fieldWidth=0, QChar fillChar=QLatin1Char(' ')) const"
            }
          },
          {
            "@kind": "function",
            "type": {
              "$": "KLocalizedString"
            },
            "name": {
              "$": "subs"
            },
            "anchorfile": {
              "$": "classKLocalizedString.html"
            },
            "anchor": {
              "$": "a80a57c0ec3bdf9ea1cdb46332f538323"
            },
            "arglist": {
              "$": "(const QString &a, int fieldWidth=0, QChar fillChar=QLatin1Char(' ')) const"
            }
          },
          {
            "@kind": "function",
            "type": {
              "$": "KLocalizedString"
            },
            "name": {
              "$": "subs"
            },
            "anchorfile": {
              "$": "classKLocalizedString.html"
            },
            "anchor": {
              "$": "a0452dcf27f08d6baa4d60a1fedc025d4"
            },
            "arglist": {
              "$": "(double a, int fieldWidth=0, char format='g', int precision=-1, QChar fillChar=QLatin1Char(' ')) const"
            }
          },
          {
            "@kind": "function",
            "type": {
              "$": "KLocalizedString"
            },
            "name": {
              "$": "subs"
            },
            "anchorfile": {
              "$": "classKLocalizedString.html"
            },
            "anchor": {
              "$": "ad42dbcbdfedf9668a0029cd19c1889ca"
            },
            "arglist": {
              "$": "(int a, int fieldWidth=0, int base=10, QChar fillChar=QLatin1Char(' ')) const"
            }
          },
          {
            "@kind": "function",
            "type": {
              "$": "KLocalizedString"
            },
            "name": {
              "$": "subs"
            },
            "anchorfile": {
              "$": "classKLocalizedString.html"
            },
            "anchor": {
              "$": "aaf8d42231ea2025290ef8c46cd59eda2"
            },
            "arglist": {
              "$": "(long a, int fieldWidth=0, int base=10, QChar fillChar=QLatin1Char(' ')) const"
            }
          },
          {
            "@kind": "function",
            "type": {
              "$": "KLocalizedString"
            },
            "name": {
              "$": "subs"
            },
            "anchorfile": {
              "$": "classKLocalizedString.html"
            },
            "anchor": {
              "$": "a755afe8c1981f6a7956ecd99ea325401"
            },
            "arglist": {
              "$": "(QChar a, int fieldWidth=0, QChar fillChar=QLatin1Char(' ')) const"
            }
          },
          {
            "@kind": "function",
            "type": {
              "$": "KLocalizedString"
            },
            "name": {
              "$": "subs"
            },
            "anchorfile": {
              "$": "classKLocalizedString.html"
            },
            "anchor": {
              "$": "af71c537ef9cc53ad55c7851c7746a564"
            },
            "arglist": {
              "$": "(qlonglong a, int fieldWidth=0, int base=10, QChar fillChar=QLatin1Char(' ')) const"
            }
          },
          {
            "@kind": "function",
            "type": {
              "$": "KLocalizedString"
            },
            "name": {
              "$": "subs"
            },
            "anchorfile": {
              "$": "classKLocalizedString.html"
            },
            "anchor": {
              "$": "a66ab991d9c503d71b939dce7ba35bdfe"
            },
            "arglist": {
              "$": "(qulonglong a, int fieldWidth=0, int base=10, QChar fillChar=QLatin1Char(' ')) const"
            }
          },
          {
            "@kind": "function",
            "type": {
              "$": "KLocalizedString"
            },
            "name": {
              "$": "subs"
            },
            "anchorfile": {
              "$": "classKLocalizedString.html"
            },
            "anchor": {
              "$": "a6c1d5354646eaa8994be0187ed876ffb"
            },
            "arglist": {
              "$": "(uint a, int fieldWidth=0, int base=10, QChar fillChar=QLatin1Char(' ')) const"
            }
          },
          {
            "@kind": "function",
            "type": {
              "$": "KLocalizedString"
            },
            "name": {
              "$": "subs"
            },
            "anchorfile": {
              "$": "classKLocalizedString.html"
            },
            "anchor": {
              "$": "a24c74929fa6262faf3258ea7bb64b3d2"
            },
            "arglist": {
              "$": "(ulong a, int fieldWidth=0, int base=10, QChar fillChar=QLatin1Char(' ')) const"
            }
          },
          {
            "@kind": "function",
            "type": {
              "$": "QString"
            },
            "name": {
              "$": "toString"
            },
            "anchorfile": {
              "$": "classKLocalizedString.html"
            },
            "anchor": {
              "$": "a2ce655136d85997c70d734fb1587bd9b"
            },
            "arglist": {
              "$": "() const"
            }
          },
          {
            "@kind": "function",
            "type": {
              "$": "QString"
            },
            "name": {
              "$": "toString"
            },
            "anchorfile": {
              "$": "classKLocalizedString.html"
            },
            "anchor": {
              "$": "aac6e5af25354856eb1405e60614af085"
            },
            "arglist": {
              "$": "(const char *domain) const"
            }
          },
          {
            "@kind": "function",
            "type": {
              "$": "QString"
            },
            "name": {
              "$": "toString"
            },
            "anchorfile": {
              "$": "classKLocalizedString.html"
            },
            "anchor": {
              "$": "ace71f7ae90b610302b5b9c0677c5abef"
            },
            "arglist": {
              "$": "(const QStringList &languages) const"
            }
          },
          {
            "@kind": "function",
            "type": {
              "$": "QString"
            },
            "name": {
              "$": "toString"
            },
            "anchorfile": {
              "$": "classKLocalizedString.html"
            },
            "anchor": {
              "$": "ac014a5bc47507621d999af65dbe8f19c"
            },
            "arglist": {
              "$": "(Kuit::VisualFormat format) const"
            }
          },
          {
            "@kind": "function",
            "type": {
              "$": "QByteArray"
            },
            "name": {
              "$": "untranslatedText"
            },
            "anchorfile": {
              "$": "classKLocalizedString.html"
            },
            "anchor": {
              "$": "aa907aaa2128d1fb7f48b624258e40184"
            },
            "arglist": {
              "$": "() const"
            }
          },
          {
            "@kind": "function",
            "type": {
              "$": "KLocalizedString"
            },
            "name": {
              "$": "withDomain"
            },
            "anchorfile": {
              "$": "classKLocalizedString.html"
            },
            "anchor": {
              "$": "a2127e035e25c337bfcfc46b1d3a297e7"
            },
            "arglist": {
              "$": "(const char *domain) const"
            }
          },
          {
            "@kind": "function",
            "type": {
              "$": "KLocalizedString"
            },
            "name": {
              "$": "withFormat"
            },
            "anchorfile": {
              "$": "classKLocalizedString.html"
            },
            "anchor": {
              "$": "a74849152f26c205f5f15101cad8e27ce"
            },
            "arglist": {
              "$": "(Kuit::VisualFormat format) const"
            }
          },
          {
            "@kind": "function",
            "type": {
              "$": "KLocalizedString"
            },
            "name": {
              "$": "withLanguages"
            },
            "anchorfile": {
              "$": "classKLocalizedString.html"
            },
            "anchor": {
              "$": "a78c45b45fe93896c662498146d79a424"
            },
            "arglist": {
              "$": "(const QStringList &languages) const"
            }
          },
          {
            "@kind": "function",
            "@static": "yes",
            "type": {
              "$": "static void"
            },
            "name": {
              "$": "addDomainLocaleDir"
            },
            "anchorfile": {
              "$": "classKLocalizedString.html"
            },
            "anchor": {
              "$": "a9576c7740646224c091303738e06492b"
            },
            "arglist": {
              "$": "(const QByteArray &domain, const QString &path)"
            }
          },
          {
            "@kind": "function",
            "@static": "yes",
            "type": {
              "$": "static QByteArray"
            },
            "name": {
              "$": "applicationDomain"
            },
            "anchorfile": {
              "$": "classKLocalizedString.html"
            },
            "anchor": {
              "$": "a16b65aa9d637c5022a7553f0b4094f67"
            },
            "arglist": {
              "$": "()"
            }
          },
          {
            "@kind": "function",
            "@static": "yes",
            "type": {
              "$": "static QSet< QString >"
            },
            "name": {
              "$": "availableApplicationTranslations"
            },
            "anchorfile": {
              "$": "classKLocalizedString.html"
            },
            "anchor": {
              "$": "aa2d3bdf7a197c4e3d74e6dc22e766d80"
            },
            "arglist": {
              "$": "()"
            }
          },
          {
            "@kind": "function",
            "@static": "yes",
            "type": {
              "$": "static QSet< QString >"
            },
            "name": {
              "$": "availableDomainTranslations"
            },
            "anchorfile": {
              "$": "classKLocalizedString.html"
            },
            "anchor": {
              "$": "a0f8c286dff773929ac41e709c3ff5222"
            },
            "arglist": {
              "$": "(const QByteArray &domain)"
            }
          },
          {
            "@kind": "function",
            "@static": "yes",
            "type": {
              "$": "static void"
            },
            "name": {
              "$": "clearLanguages"
            },
            "anchorfile": {
              "$": "classKLocalizedString.html"
            },
            "anchor": {
              "$": "ae257d4e2cf003f1ff3ad9e4f35f3a716"
            },
            "arglist": {
              "$": "()"
            }
          },
          {
            "@kind": "function",
            "@static": "yes",
            "type": {
              "$": "static void"
            },
            "name": {
              "$": "insertQtDomain"
            },
            "anchorfile": {
              "$": "classKLocalizedString.html"
            },
            "anchor": {
              "$": "a9dd7132aff69669f2b3ec2def6d0de86"
            },
            "arglist": {
              "$": "(const char *domain)"
            }
          },
          {
            "@kind": "function",
            "@static": "yes",
            "type": {
              "$": "static bool"
            },
            "name": {
              "$": "isApplicationTranslatedInto"
            },
            "anchorfile": {
              "$": "classKLocalizedString.html"
            },
            "anchor": {
              "$": "af0cc6c52bbb5228bec07d6da8032b16d"
            },
            "arglist": {
              "$": "(const QString &language)"
            }
          },
          {
            "@kind": "function",
            "@static": "yes",
            "type": {
              "$": "static QStringList"
            },
            "name": {
              "$": "languages"
            },
            "anchorfile": {
              "$": "classKLocalizedString.html"
            },
            "anchor": {
              "$": "a1fcf3b7bfa06a83b80dba21af305f003"
            },
            "arglist": {
              "$": "()"
            }
          },
          {
            "@kind": "function",
            "@static": "yes",
            "type": {
              "$": "static QString"
            },
            "name": {
              "$": "localizedFilePath"
            },
            "anchorfile": {
              "$": "classKLocalizedString.html"
            },
            "anchor": {
              "$": "a3d3783117e93b53529a2d60690ef5f0e"
            },
            "arglist": {
              "$": "(const QString &filePath)"
            }
          },
          {
            "@kind": "function",
            "@static": "yes",
            "type": {
              "$": "static QString"
            },
            "name": {
              "$": "removeAcceleratorMarker"
            },
            "anchorfile": {
              "$": "classKLocalizedString.html"
            },
            "anchor": {
              "$": "a948c9c72b7e8fd01bc742ce76b8439e1"
            },
            "arglist": {
              "$": "(const QString &label)"
            }
          },
          {
            "@kind": "function",
            "@static": "yes",
            "type": {
              "$": "static void"
            },
            "name": {
              "$": "removeQtDomain"
            },
            "anchorfile": {
              "$": "classKLocalizedString.html"
            },
            "anchor": {
              "$": "a2dfe4ff7d94e96c8265127e247341195"
            },
            "arglist": {
              "$": "(const char *domain)"
            }
          },
          {
            "@kind": "function",
            "@static": "yes",
            "type": {
              "$": "static void"
            },
            "name": {
              "$": "setApplicationDomain"
            },
            "anchorfile": {
              "$": "classKLocalizedString.html"
            },
            "anchor": {
              "$": "ad866b11bf396b9d93b7dc313a1930b7b"
            },
            "arglist": {
              "$": "(const char *domain)"
            }
          },
          {
            "@kind": "function",
            "@static": "yes",
            "type": {
              "$": "static void"
            },
            "name": {
              "$": "setLanguages"
            },
            "anchorfile": {
              "$": "classKLocalizedString.html"
            },
            "anchor": {
              "$": "adc41e7689dc48400e5c28192aaa40b5c"
            },
            "arglist": {
              "$": "(const QStringList &languages)"
            }
          },
          {
            "@kind": "function",
            "@static": "yes",
            "type": {
              "$": "static QString"
            },
            "name": {
              "$": "translateQt"
            },
            "anchorfile": {
              "$": "classKLocalizedString.html"
            },
            "anchor": {
              "$": "a7af48616df5bf46eb5e40c9136189e3c"
            },
            "arglist": {
              "$": "(const char *context, const char *text, const char *comment, int n)"
            }
          },
          {
            "@kind": "friend",
            "@protection": "private",
            "type": {
              "$": "friend KLocalizedString KI18N_EXPORT"
            },
            "name": {
              "$": "ki18n"
            },
            "anchorfile": {
              "$": "classKLocalizedString.html"
            },
            "anchor": {
              "$": "a2436c0aaeb52c95fdd3da220ccd39854"
            },
            "arglist": {
              "$": "(const char *text)"
            }
          },
          {
            "@kind": "friend",
            "@protection": "private",
            "type": {
              "$": "friend KLocalizedString KI18N_EXPORT"
            },
            "name": {
              "$": "ki18nc"
            },
            "anchorfile": {
              "$": "classKLocalizedString.html"
            },
            "anchor": {
              "$": "ab1bd4bdd21557ffb2df84df87f6e1986"
            },
            "arglist": {
              "$": "(const char *context, const char *text)"
            }
          },
          {
            "@kind": "friend",
            "@protection": "private",
            "type": {
              "$": "friend KLocalizedString KI18N_EXPORT"
            },
            "name": {
              "$": "ki18ncp"
            },
            "anchorfile": {
              "$": "classKLocalizedString.html"
            },
            "anchor": {
              "$": "a73bc81062c8670e54a23d01b4a00f56e"
            },
            "arglist": {
              "$": "(const char *context, const char *singular, const char *plural)"
            }
          },
          {
            "@kind": "friend",
            "@protection": "private",
            "type": {
              "$": "friend KLocalizedString KI18N_EXPORT"
            },
            "name": {
              "$": "ki18nd"
            },
            "anchorfile": {
              "$": "classKLocalizedString.html"
            },
            "anchor": {
              "$": "a17edd286c0b63f5e36417eba4a8e7ce9"
            },
            "arglist": {
              "$": "(const char *domain, const char *text)"
            }
          },
          {
            "@kind": "friend",
            "@protection": "private",
            "type": {
              "$": "friend KLocalizedString KI18N_EXPORT"
            },
            "name": {
              "$": "ki18ndc"
            },
            "anchorfile": {
              "$": "classKLocalizedString.html"
            },
            "anchor": {
              "$": "a91635b1edb372370deb3703f4bb800d1"
            },
            "arglist": {
              "$": "(const char *domain, const char *context, const char *text)"
            }
          },
          {
            "@kind": "friend",
            "@protection": "private",
            "type": {
              "$": "friend KLocalizedString KI18N_EXPORT"
            },
            "name": {
              "$": "ki18ndcp"
            },
            "anchorfile": {
              "$": "classKLocalizedString.html"
            },
            "anchor": {
              "$": "a98ac261ca74304b6ef5e20d63aade685"
            },
            "arglist": {
              "$": "(const char *domain, const char *context, const char *singular, const char *plural)"
            }
          },
          {
            "@kind": "friend",
            "@protection": "private",
            "type": {
              "$": "friend KLocalizedString KI18N_EXPORT"
            },
            "name": {
              "$": "ki18ndp"
            },
            "anchorfile": {
              "$": "classKLocalizedString.html"
            },
            "anchor": {
              "$": "afb2ff7eb3c7499abc84854263825934a"
            },
            "arglist": {
              "$": "(const char *domain, const char *singular, const char *plural)"
            }
          },
          {
            "@kind": "friend",
            "@protection": "private",
            "type": {
              "$": "friend KLocalizedString KI18N_EXPORT"
            },
            "name": {
              "$": "ki18np"
            },
            "anchorfile": {
              "$": "classKLocalizedString.html"
            },
            "anchor": {
              "$": "a081851d1d0bb4cb20393ae9bdb919df3"
            },
            "arglist": {
              "$": "(const char *singular, const char *plural)"
            }
          },
          {
            "@kind": "friend",
            "@protection": "private",
            "type": {
              "$": "friend KLocalizedString KI18N_EXPORT"
            },
            "name": {
              "$": "kxi18n"
            },
            "anchorfile": {
              "$": "classKLocalizedString.html"
            },
            "anchor": {
              "$": "ab0476bb74730bc6b6d085d22b96eca98"
            },
            "arglist": {
              "$": "(const char *text)"
            }
          },
          {
            "@kind": "friend",
            "@protection": "private",
            "type": {
              "$": "friend KLocalizedString KI18N_EXPORT"
            },
            "name": {
              "$": "kxi18nc"
            },
            "anchorfile": {
              "$": "classKLocalizedString.html"
            },
            "anchor": {
              "$": "af33ce42696f558d20a27f19949acc1cf"
            },
            "arglist": {
              "$": "(const char *context, const char *text)"
            }
          },
          {
            "@kind": "friend",
            "@protection": "private",
            "type": {
              "$": "friend KLocalizedString KI18N_EXPORT"
            },
            "name": {
              "$": "kxi18ncp"
            },
            "anchorfile": {
              "$": "classKLocalizedString.html"
            },
            "anchor": {
              "$": "a479fc87f3703d2e470543e7c73956623"
            },
            "arglist": {
              "$": "(const char *context, const char *singular, const char *plural)"
            }
          },
          {
            "@kind": "friend",
            "@protection": "private",
            "type": {
              "$": "friend KLocalizedString KI18N_EXPORT"
            },
            "name": {
              "$": "kxi18nd"
            },
            "anchorfile": {
              "$": "classKLocalizedString.html"
            },
            "anchor": {
              "$": "a427f572ed2044dec2dce2498fa7fd0e0"
            },
            "arglist": {
              "$": "(const char *domain, const char *text)"
            }
          },
          {
            "@kind": "friend",
            "@protection": "private",
            "type": {
              "$": "friend KLocalizedString KI18N_EXPORT"
            },
            "name": {
              "$": "kxi18ndc"
            },
            "anchorfile": {
              "$": "classKLocalizedString.html"
            },
            "anchor": {
              "$": "aca3b09fb5651e7853650a9e888d2e15c"
            },
            "arglist": {
              "$": "(const char *domain, const char *context, const char *text)"
            }
          },
          {
            "@kind": "friend",
            "@protection": "private",
            "type": {
              "$": "friend KLocalizedString KI18N_EXPORT"
            },
            "name": {
              "$": "kxi18ndcp"
            },
            "anchorfile": {
              "$": "classKLocalizedString.html"
            },
            "anchor": {
              "$": "a4aa40f5d1a3f7cb5ebf3ce445c78d079"
            },
            "arglist": {
              "$": "(const char *domain, const char *context, const char *singular, const char *plural)"
            }
          },
          {
            "@kind": "friend",
            "@protection": "private",
            "type": {
              "$": "friend KLocalizedString KI18N_EXPORT"
            },
            "name": {
              "$": "kxi18ndp"
            },
            "anchorfile": {
              "$": "classKLocalizedString.html"
            },
            "anchor": {
              "$": "ad03f80c103e996d89f3a1ac1bc363f86"
            },
            "arglist": {
              "$": "(const char *domain, const char *singular, const char *plural)"
            }
          },
          {
            "@kind": "friend",
            "@protection": "private",
            "type": {
              "$": "friend KLocalizedString KI18N_EXPORT"
            },
            "name": {
              "$": "kxi18np"
            },
            "anchorfile": {
              "$": "classKLocalizedString.html"
            },
            "anchor": {
              "$": "a15206c846fe091b9317be3f4df3c3ba8"
            },
            "arglist": {
              "$": "(const char *singular, const char *plural)"
            }
          }
        ]
      },
      {
        "@kind": "class",
        "name": {
          "$": "KLocalizedTranslator"
        },
        "filename": {
          "$": "classKLocalizedTranslator.html"
        },
        "base": {
          "$": "QTranslator"
        },
        "member": [
          {
            "@kind": "function",
            "type": {
              "$": "void"
            },
            "name": {
              "$": "addContextToMonitor"
            },
            "anchorfile": {
              "$": "classKLocalizedTranslator.html"
            },
            "anchor": {
              "$": "a19775d5169e3574d454c5630ef41f776"
            },
            "arglist": {
              "$": "(const QString &context)"
            }
          },
          {
            "@kind": "function",
            "type": {
              "$": "void"
            },
            "name": {
              "$": "removeContextToMonitor"
            },
            "anchorfile": {
              "$": "classKLocalizedTranslator.html"
            },
            "anchor": {
              "$": "ae73566b560a8e32bd2345e0b3a0d7118"
            },
            "arglist": {
              "$": "(const QString &context)"
            }
          },
          {
            "@kind": "function",
            "type": {
              "$": "void"
            },
            "name": {
              "$": "setTranslationDomain"
            },
            "anchorfile": {
              "$": "classKLocalizedTranslator.html"
            },
            "anchor": {
              "$": "ac14dcf8be55b065527f90eb362dabfa6"
            },
            "arglist": {
              "$": "(const QString &translationDomain)"
            }
          }
        ]
      },
      {
        "@kind": "class",
        "name": {
          "$": "KuitSetup"
        },
        "filename": {
          "$": "classKuitSetup.html"
        },
        "member": [
          {
            "@kind": "function",
            "type": {},
            "name": {
              "$": "~KuitSetup"
            },
            "anchorfile": {
              "$": "classKuitSetup.html"
            },
            "anchor": {
              "$": "a04d1961880394ac9bf2178cad4bb8ab3"
            },
            "arglist": {
              "$": "()"
            }
          },
          {
            "@kind": "function",
            "type": {
              "$": "void"
            },
            "name": {
              "$": "setFormatForMarker"
            },
            "anchorfile": {
              "$": "classKuitSetup.html"
            },
            "anchor": {
              "$": "a3568653e8e4cd63a18fd37e85d0135b2"
            },
            "arglist": {
              "$": "(const QString &marker, Kuit::VisualFormat format)"
            }
          },
          {
            "@kind": "function",
            "type": {
              "$": "void"
            },
            "name": {
              "$": "setTagClass"
            },
            "anchorfile": {
              "$": "classKuitSetup.html"
            },
            "anchor": {
              "$": "a3bcdcb05b65cc6e531572bd5ddf891a6"
            },
            "arglist": {
              "$": "(const QString &tagName, Kuit::TagClass aClass)"
            }
          },
          {
            "@kind": "function",
            "type": {
              "$": "void"
            },
            "name": {
              "$": "setTagPattern"
            },
            "anchorfile": {
              "$": "classKuitSetup.html"
            },
            "anchor": {
              "$": "a12bd402f6ae017e372ce78ce16fd0df0"
            },
            "arglist": {
              "$": "(const QString &tagName, const QStringList &attribNames, Kuit::VisualFormat format, const KLocalizedString &pattern, Kuit::TagFormatter formatter=nullptr, int leadingNewlines=0)"
            }
          }
        ]
      },
      {
        "@kind": "namespace",
        "name": {
          "$": "KTimeZone"
        },
        "filename": {
          "$": "namespaceKTimeZone.html"
        },
        "member": [
          {
            "@kind": "function",
            "type": {
              "$": "KI18NLOCALEDATA_EXPORT KCountry"
            },
            "name": {
              "$": "country"
            },
            "anchorfile": {
              "$": "namespaceKTimeZone.html"
            },
            "anchor": {
              "$": "afd9e79f14b6cc7a8d11768a9c22086af"
            },
            "arglist": {
              "$": "(const char *ianaId)"
            }
          },
          {
            "@kind": "function",
            "type": {
              "$": "const KI18NLOCALEDATA_EXPORT char *"
            },
            "name": {
              "$": "fromLocation"
            },
            "anchorfile": {
              "$": "namespaceKTimeZone.html"
            },
            "anchor": {
              "$": "a61dd21b2843ecd08461449bd245e75b8"
            },
            "arglist": {
              "$": "(float latitude, float longitude)"
            }
          }
        ]
      },
      {
        "@kind": "namespace",
        "name": {
          "$": "Kuit"
        },
        "filename": {
          "$": "namespaceKuit.html"
        },
        "member": [
          {
            "@kind": "typedef",
            "type": {
              "$": "QString(*"
            },
            "name": {
              "$": "TagFormatter"
            },
            "anchorfile": {
              "$": "namespaceKuit.html"
            },
            "anchor": {
              "$": "ab8a85c35e268e3d9e7af18bbc604e846"
            },
            "arglist": {
              "$": ")(const QStringList &languages, const QString &tagName, const QHash< QString, QString > &attributes, const QString &text, const QStringList &tagPath, Kuit::VisualFormat format)"
            }
          },
          {
            "@kind": "enumeration",
            "type": {},
            "name": {
              "$": "TagClass"
            },
            "anchorfile": {
              "$": "namespaceKuit.html"
            },
            "anchor": {
              "$": "a603c809f04576437e5295ca72f378731"
            },
            "arglist": {}
          },
          {
            "@kind": "enumvalue",
            "name": {
              "$": "PhraseTag"
            },
            "anchorfile": {
              "$": "namespaceKuit.html"
            },
            "anchor": {
              "$": "a603c809f04576437e5295ca72f378731a23102b4131131de2ba673f853804cce1"
            },
            "arglist": {}
          },
          {
            "@kind": "enumvalue",
            "name": {
              "$": "StructTag"
            },
            "anchorfile": {
              "$": "namespaceKuit.html"
            },
            "anchor": {
              "$": "a603c809f04576437e5295ca72f378731a0b2439e9ad75c9bba7cc7ea7c482d4e3"
            },
            "arglist": {}
          },
          {
            "@kind": "enumeration",
            "type": {},
            "name": {
              "$": "VisualFormat"
            },
            "anchorfile": {
              "$": "namespaceKuit.html"
            },
            "anchor": {
              "$": "adaceed98fa9a6d3b55f66dea1ec4ff3e"
            },
            "arglist": {}
          },
          {
            "@kind": "enumvalue",
            "name": {
              "$": "UndefinedFormat"
            },
            "anchorfile": {
              "$": "namespaceKuit.html"
            },
            "anchor": {
              "$": "adaceed98fa9a6d3b55f66dea1ec4ff3ea7a707593a71ca028fe33e745b1f99e4d"
            },
            "arglist": {}
          },
          {
            "@kind": "enumvalue",
            "name": {
              "$": "PlainText"
            },
            "anchorfile": {
              "$": "namespaceKuit.html"
            },
            "anchor": {
              "$": "adaceed98fa9a6d3b55f66dea1ec4ff3ead4a8f76ffbb273eb6223d97665285671"
            },
            "arglist": {}
          },
          {
            "@kind": "enumvalue",
            "name": {
              "$": "RichText"
            },
            "anchorfile": {
              "$": "namespaceKuit.html"
            },
            "anchor": {
              "$": "adaceed98fa9a6d3b55f66dea1ec4ff3ea83c576dc3a70a13fcd30ed8ef3871c3f"
            },
            "arglist": {}
          },
          {
            "@kind": "enumvalue",
            "name": {
              "$": "TermText"
            },
            "anchorfile": {
              "$": "namespaceKuit.html"
            },
            "anchor": {
              "$": "adaceed98fa9a6d3b55f66dea1ec4ff3ea41b2d05069b80945e1ef691f5ba1fdc4"
            },
            "arglist": {}
          },
          {
            "@kind": "function",
            "type": {
              "$": "KI18N_EXPORT KuitSetup &"
            },
            "name": {
              "$": "setupForDomain"
            },
            "anchorfile": {
              "$": "namespaceKuit.html"
            },
            "anchor": {
              "$": "a6e093c4b99e6d775bfdcedfe5bcbab37"
            },
            "arglist": {
              "$": "(const char *domain)"
            }
          }
        ]
      },
      {
        "@kind": "page",
        "name": {
          "$": "locale_data_qml_api"
        },
        "title": {
          "$": "Locale Data QML API"
        },
        "filename": {
          "$": "locale_data_qml_api"
        }
      },
      {
        "@kind": "page",
        "name": {
          "$": "prg_guide"
        },
        "title": {
          "$": "Programmer's Guide"
        },
        "filename": {
          "$": "prg_guide"
        }
      },
      {
        "@kind": "page",
        "name": {
          "$": "trn_guide"
        },
        "title": {
          "$": "Translator's Guide"
        },
        "filename": {
          "$": "trn_guide"
        }
      },
      {
        "@kind": "page",
        "name": {
          "$": "index"
        },
        "title": {
          "$": "KI18n"
        },
        "filename": {
          "$": "index"
        }
      }
    ]
  }
}